dkjlsfh;jfrdl%C3%B6%C3%A4yvyF%C3%B6486-dffjgsissdlca;3;
dgdfdg;jfrdl%C3%B6%C3%A4yvyF%C3%B6486-dffjgsissdlca;4;on
5a0d8+096ba;jfrdl%C3%B6%C3%A4yvyF%C3%B6486-dffjgsissdlca;5;
cab52+2c6ce;jfrdl%C3%B6%C3%A4yvyF%C3%B6486-dffjgsissdlca;5;
43be6+af6f3;jfrdl%C3%B6%C3%A4yvyF%C3%B6486-dffjgsissdlca;;
aaaa;jfrdl%C3%B6%C3%A4yvyF%C3%B6486-dffjgsissdlca;3;on
aaa;jfrdl%C3%B6%C3%A4yvyF%C3%B6486-dffjgsissdlca;;
f9cdd+d691b;jfrdl%C3%B6%C3%A4yvyF%C3%B6486-dffjgsissdlca;5;
aaa;jfrdl%C3%B6%C3%A4yvyF%C3%B6486-dffjgsissdlca;;
a5600+604d9;jfrdl%C3%B6%C3%A4yvyF%C3%B6486-dffjgsissdlca;5;
Dracula;jfrdl%C3%B6%C3%A4yvyF%C3%B6486-dffjgsissdlca;3;on
Dummys;jfrdl%C3%B6%C3%A4yvyF%C3%B6486-dffjgsissdlca;4;
Dummys;jfrdlöäyvyFö486-dffjgsissdlca;4;
